<?xml version="1.0" standalone="no"?>
<!DOCTYPE svg PUBLIC "-//W3C//DTD SVG 20010904//EN"
 "http://www.w3.org/TR/2001/REC-SVG-20010904/DTD/svg10.dtd">
<svg version="1.0" xmlns="http://www.w3.org/2000/svg"
 width="2000.000000pt" height="2000.000000pt" viewBox="0 0 2000.000000 2000.000000"
 preserveAspectRatio="xMidYMid meet">
<metadata>
Created by potrace 1.15, written by Peter Selinger 2001-2017
</metadata>
<g transform="translate(0.000000,2000.000000) scale(0.100000,-0.100000)"
fill="#000000" stroke="none">
<path d="M9000 15000 l0 -4000 -2000 0 c-1100 0 -2000 -2 -2000 -5 0 -10 4992
-5995 5000 -5995 8 0 5000 5985 5000 5995 0 3 -900 5 -2000 5 l-2000 0 0 4000
0 4000 -1000 0 -1000 0 0 -4000z"/>
<path d="M1002 5373 c3 -2512 4 -2632 22 -2723 83 -426 262 -766 561 -1065
298 -298 640 -478 1065 -561 92 -18 326 -19 7305 -22 7956 -3 7295 -8 7554 59
344 89 644 262 906 524 262 262 435 562 524 906 65 251 61 80 61 2924 l0 2585
-1000 0 -1000 0 0 -2500 0 -2500 -7000 0 -7000 0 0 2500 0 2500 -1000 0 -1000
0 2 -2627z"/>
</g>
</svg>
